Pivot Concept Relationships
…
test_data
#> # A tibble: 100 x 10
#>    concept_id concept_name domain_id vocabulary_id concept_class_id
#>         <dbl> <chr>        <chr>     <chr>         <chr>           
#>  1   44044724 Betamethaso… Drug      RxNorm Exten… Branded Drug Fo…
#>  2   40888279 Amoxicillin… Drug      RxNorm Exten… Marketed Product
#>  3   42971469 Calcium 100… Drug      RxNorm Exten… Branded Drug Co…
#>  4   40965002 Sertraline … Drug      RxNorm Exten… Branded Drug Box
#>  5    2040217 dorzolamide… Drug      RxNorm Exten… Branded Drug    
#>  6   43148212 Fenofibrate… Drug      RxNorm Exten… Branded Drug Box
#>  7   21128822 Heavy miner… Drug      RxNorm Exten… Clinical Drug F…
#>  8    2039876 theobromine… Drug      RxNorm Exten… Marketed Product
#>  9   43753155 5 ML Procai… Drug      RxNorm Exten… Marketed Product
#> 10   43794211 250 ML Magn… Drug      RxNorm Exten… Quant Branded D…
#> # … with 90 more rows, and 5 more variables: standard_concept <chr>,
#> #   concept_code <chr>, valid_start_date <date>, valid_end_date <date>,
#> #   invalid_reason <chr>
…
test_data_relationships
#> # A tibble: 826 x 21
#>    relationship_id concept_id_1 concept_name_1 domain_id_1 vocabulary_id_1
#>    <chr>                  <dbl> <chr>          <chr>       <chr>          
#>  1 Mapped from         43623023 Mitoxantrone … Drug        RxNorm Extensi…
#>  2 Maps to             43623023 Mitoxantrone … Drug        RxNorm Extensi…
#>  3 Has marketed f…     43623023 Mitoxantrone … Drug        RxNorm Extensi…
#>  4 RxNorm is a         43623023 Mitoxantrone … Drug        RxNorm Extensi…
#>  5 Has quantified…     43623023 Mitoxantrone … Drug        RxNorm Extensi…
#>  6 RxNorm has dos…     43623023 Mitoxantrone … Drug        RxNorm Extensi…
#>  7 RxNorm has dos…     43648593 1500 MG grape… Drug        RxNorm Extensi…
#>  8 Mapped from         43648593 1500 MG grape… Drug        RxNorm Extensi…
#>  9 Maps to             43648593 1500 MG grape… Drug        RxNorm Extensi…
#> 10 Marketed form …     43648593 1500 MG grape… Drug        RxNorm Extensi…
#> # … with 816 more rows, and 16 more variables: concept_class_id_1 <chr>,
#> #   standard_concept_1 <chr>, concept_code_1 <chr>, valid_start_date_1 <date>,
#> #   valid_end_date_1 <date>, invalid_reason_1 <chr>, concept_id_2 <dbl>,
#> #   concept_name_2 <chr>, domain_id_2 <chr>, vocabulary_id_2 <chr>,
#> #   concept_class_id_2 <chr>, standard_concept_2 <chr>, concept_code_2 <chr>,
#> #   valid_start_date_2 <date>, valid_end_date_2 <date>, invalid_reason_2 <chr>

To properly pivot the resultset, the concepts on both sides require transformation into a single cell per concept. This is achieved by converting concepts into the strip format.

test_data_relationships2 <-
  test_data_relationships %>%
  merge_strip(into = "concept_1", 
              suffix = "_1") %>%
  merge_strip(into = "concept_2",
              suffix = "_2")

test_data_relationships2
#> # A tibble: 826 x 5
#>    concept_2_id concept_2         concept_1_id concept_1         relationship_id
#>           <dbl> <chr>                    <dbl> <chr>             <chr>          
#>  1     43623023 [V] [S] 43623023…     43623023 [V] [S] 43623023… Mapped from    
#>  2     43623023 [V] [S] 43623023…     43623023 [V] [S] 43623023… Maps to        
#>  3     43628222 [V] [S] 43628222…     43623023 [V] [S] 43623023… Has marketed f…
#>  4     43748954 [V] [S] 43748954…     43623023 [V] [S] 43623023… RxNorm is a    
#>  5     43808113 [V] [S] 43808113…     43623023 [V] [S] 43623023… Has quantified…
#>  6     46234469 [V] [N] 46234469…     43623023 [V] [S] 43623023… RxNorm has dos…
#>  7     19095976 [V] [N] 19095976…     43648593 [V] [S] 43648593… RxNorm has dos…
#>  8     43648593 [V] [S] 43648593…     43648593 [V] [S] 43648593… Mapped from    
#>  9     43648593 [V] [S] 43648593…     43648593 [V] [S] 43648593… Maps to        
#> 10     43810330 [V] [S] 43810330…     43648593 [V] [S] 43648593… Marketed form …
#> # … with 816 more rows

The dataset can now be pivoted by the relationship, hinging on concept_1, which are the concepts that were originally inputted.

output <-
  test_data_relationships2 %>%
  pivot_wider(id_cols = concept_1,
              names_from = relationship_id, 
              values_from = concept_2)
#> Warning: Values are not uniquely identified; output will contain list-cols.
#> * Use `values_fn = list` to suppress this warning.
#> * Use `values_fn = length` to identify where the duplicates arise
#> * Use `values_fn = {summary_fun}` to summarise duplicates
output
#> # A tibble: 100 x 22
#>    concept_1 `Mapped from` `Maps to` `Has marketed f… `RxNorm is a`
#>    <chr>     <list>        <list>    <list>           <list>       
#>  1 [V] [S] … <chr [1]>     <chr [1]> <chr [3]>        <chr [1]>    
#>  2 [V] [S] … <chr [1]>     <chr [1]> <NULL>           <NULL>       
#>  3 [V] [S] … <chr [1]>     <chr [1]> <chr [1]>        <chr [1]>    
#>  4 [V] [S] … <chr [1]>     <chr [1]> <NULL>           <NULL>       
#>  5 [V] [S] … <chr [1]>     <chr [1]> <NULL>           <chr [1]>    
#>  6 [V] [S] … <chr [2]>     <chr [1]> <chr [6]>        <chr [1]>    
#>  7 [V] [S] … <chr [2]>     <chr [1]> <NULL>           <NULL>       
#>  8 [V] [S] … <chr [1]>     <chr [1]> <NULL>           <NULL>       
#>  9 [V] [S] … <chr [2]>     <chr [1]> <NULL>           <chr [1]>    
#> 10 [V] [S] … <chr [3]>     <chr [1]> <NULL>           <NULL>       
#> # … with 90 more rows, and 17 more variables: `Has quantified form` <list>,
#> #   `RxNorm has dose form` <list>, `Marketed form of` <list>, `Consists
#> #   of` <list>, `Tradename of` <list>, `RxNorm inverse is a` <list>, `Has brand
#> #   name` <list>, `Has supplier` <list>, `Has tradename` <list>, `Box
#> #   of` <list>, `Quantified form of` <list>, `Concept replaces` <list>,
#> #   `Available as box` <list>, Constitutes <list>, `Drug has drug
#> #   class` <list>, `RxNorm has ing` <list>, `RxNorm - ATC` <list>

Since at times a concept_1 may have a specific relationship to more than 1 concept_2, a list-cols are returned in the output. To create a more readable output, an aggregate function on concept_2 must be supplied to convert multiple concept_2 values into a string of length 1.

output <-
  test_data_relationships2 %>%
  pivot_wider(id_cols = concept_1,
              names_from = relationship_id, 
              values_from = concept_2,
              # Add aggregate function
              values_fn = list(concept_2 = ~ paste(unique(.), collapse = "|"))
              )
output
#> # A tibble: 100 x 22
#>    concept_1 `Mapped from` `Maps to` `Has marketed f… `RxNorm is a`
#>    <chr>     <chr>         <chr>     <chr>            <chr>        
#>  1 [V] [S] … [V] [S] 4362… [V] [S] … [V] [S] 4362822… [V] [S] 4374…
#>  2 [V] [S] … [V] [S] 4364… [V] [S] … <NA>             <NA>         
#>  3 [V] [S] … [V] [S] 4412… [V] [S] … [V] [S] 4410334… [V] [S] 4403…
#>  4 [V] [S] … [V] [S] 4418… [V] [S] … <NA>             <NA>         
#>  5 [V] [S] … [V] [S] 4577… [V] [S] … <NA>             [V] [C] 3624…
#>  6 [V] [S] … [V] [S] 4106… [V] [S] … [V] [S] 4363129… [V] [S] 4098…
#>  7 [V] [S] … [U] [N] 3627… [V] [S] … <NA>             <NA>         
#>  8 [V] [S] … [V] [S] 4125… [V] [S] … <NA>             <NA>         
#>  9 [V] [S] … [V] [S] 4293… [V] [S] … <NA>             [V] [S] 4293…
#> 10 [V] [S] … [V] [S] 4018… [V] [S] … <NA>             <NA>         
#> # … with 90 more rows, and 17 more variables: `Has quantified form` <chr>,
#> #   `RxNorm has dose form` <chr>, `Marketed form of` <chr>, `Consists
#> #   of` <chr>, `Tradename of` <chr>, `RxNorm inverse is a` <chr>, `Has brand
#> #   name` <chr>, `Has supplier` <chr>, `Has tradename` <chr>, `Box of` <chr>,
#> #   `Quantified form of` <chr>, `Concept replaces` <chr>, `Available as
#> #   box` <chr>, Constitutes <chr>, `Drug has drug class` <chr>, `RxNorm has
#> #   ing` <chr>, `RxNorm - ATC` <chr>
…
