Pivot Concept Ancestors and Descendants
…
To properly pivot the resultset, the source concept and relative concepts require transformation into a single cell per concept. This is achieved by converting concepts into the strip format.

test_data_relatives3 <-
  test_data_relatives2 %>%
  merge_strip(into = "concept") %>%
  merge_strip(into = "relative", 
              prefix = "relative_")

test_data_relatives3
#> # A tibble: 28 x 6
#>    relative_id relative   concept_id concept   levels_of_separ… max_levels_of_s…
#>          <int> <chr>           <int> <chr>     <fct>                       <int>
#>  1    42903910 [V] [S] 4…   41017436 [V] [S] … ancestor_1                      1
#>  2    41017436 [V] [S] 4…   41017436 [V] [S] … ancestor_0                      0
#>  3    41113141 [V] [S] 4…   41017436 [V] [S] … descendant_0                    0
#>  4    41017436 [V] [S] 4…   41017436 [V] [S] … descendant_0                    0
#>  5    40956931 [V] [S] 4…   41017436 [V] [S] … descendant_0                    0
#>  6    40832283 [V] [S] 4…   41017436 [V] [S] … descendant_0                    0
#>  7    41436019 [V] [S] 4…   41017436 [V] [S] … descendant_1                    1
#>  8    41345456 [V] [S] 4…   41017436 [V] [S] … descendant_1                    1
#>  9    41438646 [V] [S] 4…   41017436 [V] [S] … descendant_1                    1
#> 10    41148344 [V] [S] 4…   41017436 [V] [S] … descendant_1                    1
#> # … with 18 more rows
…
