Pivot Concept Ancestors and Descendants • chariot
…
To properly pivot the resultset, the source concept and relative concepts require transformation into a single cell per concept. This is achieved by converting concepts into the strip format.

test_data_relatives3 <-
  test_data_relatives2 %>%
  merge_strip(into = "concept") %>%
  merge_strip(into = "relative", 
              prefix = "relative_")

test_data_relatives3
#> # A tibble: 31 x 6
#>    relative_id relative   concept_id concept   levels_of_separ… max_levels_of_s…
#>          <int> <chr>           <int> <chr>     <fct>                       <int>
#>  1    21601386 [V] [C] 2…   41249471 [V] [S] … <NA>                            7
#>  2    21602359 [V] [C] 2…   41249471 [V] [S] … <NA>                            7
#>  3    21602471 [V] [C] 2…   41249471 [V] [S] … <NA>                            6
#>  4    21603812 [V] [C] 2…   41249471 [V] [S] … <NA>                            6
#>  5    21602472 [V] [C] 2…   41249471 [V] [S] … <NA>                            5
#>  6    21602537 [V] [C] 2…   41249471 [V] [S] … <NA>                            5
#>  7    21603813 [V] [C] 2…   41249471 [V] [S] … <NA>                            5
#>  8    35807466 [V] [C] 3…   41249471 [V] [S] … <NA>                            5
#>  9    21602496 [V] [C] 2…   41249471 [V] [S] … ancestor_3                      4
#> 10    21602538 [V] [C] 2…   41249471 [V] [S] … ancestor_3                      4
#> # … with 21 more rows
…
