String Manipulation • chariot
…
sample_strings_words <-
process_words(data = sample_strings,
              concept_col = official_title)
#> Joining, by = "official_title"
sample_strings_words
#> # A tibble: 652 x 2
#>    official_title                                           `official_title Wor…
#>    <chr>                                                    <chr>               
#>  1 Clinical Performance of Existing Wearers of Avaira Sphe… Clinical            
#>  2 Clinical Performance of Existing Wearers of Avaira Sphe… Performance         
#>  3 Clinical Performance of Existing Wearers of Avaira Sphe… Existing            
#>  4 Clinical Performance of Existing Wearers of Avaira Sphe… Wearers             
#>  5 Clinical Performance of Existing Wearers of Avaira Sphe… Avaira              
#>  6 Clinical Performance of Existing Wearers of Avaira Sphe… Sphere              
#>  7 Clinical Performance of Existing Wearers of Avaira Sphe… Enfilcon            
#>  8 Clinical Performance of Existing Wearers of Avaira Sphe… Following           
#>  9 Clinical Performance of Existing Wearers of Avaira Sphe… Refit               
#> 10 Clinical Performance of Existing Wearers of Avaira Sphe… With                
#> # … with 642 more rows

process_unique_words(data = sample_strings_words,
                     words_col = `official_title Words`)
#> Joining, by = "official_title Words"
#> # A tibble: 652 x 3
#>    official_title                        `official_title W… `official_title Wor…
#>    <chr>                                 <chr>              <chr>               
#>  1 Clinical Performance of Existing Wea… Clinical           <NA>                
#>  2 Clinical Performance of Existing Wea… Performance        Performance         
#>  3 Clinical Performance of Existing Wea… Existing           Existing            
#>  4 Clinical Performance of Existing Wea… Wearers            Wearers             
#>  5 Clinical Performance of Existing Wea… Avaira             Avaira              
#>  6 Clinical Performance of Existing Wea… Sphere             <NA>                
#>  7 Clinical Performance of Existing Wea… Enfilcon           Enfilcon            
#>  8 Clinical Performance of Existing Wea… Following          <NA>                
#>  9 Clinical Performance of Existing Wea… Refit              Refit               
#> 10 Clinical Performance of Existing Wea… With               <NA>                
#> # … with 642 more rows

process_longest_words(data = sample_strings_words,
                      concept_col = official_title,
                      words_col = `official_title Words`)
#> Joining, by = "official_title"
#> # A tibble: 889 x 3
#>    official_title                        `official_title W… `official_title Lon…
#>    <chr>                                 <chr>              <chr>               
#>  1 Clinical Performance of Existing Wea… Clinical           Performance         
#>  2 Clinical Performance of Existing Wea… Performance        Performance         
#>  3 Clinical Performance of Existing Wea… Existing           Performance         
#>  4 Clinical Performance of Existing Wea… Wearers            Performance         
#>  5 Clinical Performance of Existing Wea… Avaira             Performance         
#>  6 Clinical Performance of Existing Wea… Sphere             Performance         
#>  7 Clinical Performance of Existing Wea… Enfilcon           Performance         
#>  8 Clinical Performance of Existing Wea… Following          Performance         
#>  9 Clinical Performance of Existing Wea… Refit              Performance         
#> 10 Clinical Performance of Existing Wea… With               Performance         
#> # … with 879 more rows

process_first_parentheses(data = sample_strings,
              concept_col = official_title)
#> Joining, by = "official_title"
#> # A tibble: 50 x 4
#>    official_title     `official_title Fro… `official_title … `official_title Be…
#>    <chr>              <chr>                <chr>             <chr>              
#>  1 Clinical Performa… Clinical Performanc… Enfilcon A        "Following a Refit…
#>  2 An Open-label Exp… An Open-label Explo… 'HAE'             ""                 
#>  3 Molecular Signatu… <NA>                 <NA>               <NA>              
#>  4 The Role of Fract… The Role of Fractio… RVVC              "：a Study Protocol…
#>  5 Colonization, Saf… <NA>                 <NA>               <NA>              
#>  6 The Reduction of … The Reduction of Mi… SMART             ""                 
#>  7 A Randomized Open… <NA>                 <NA>               <NA>              
#>  8 Pilot Study 1 of … <NA>                 <NA>               <NA>              
#>  9 Prophylactic Sub-… <NA>                 <NA>               <NA>              
#> 10 A Phase 1, Random… <NA>                 <NA>               <NA>              
#> # … with 40 more rows
…
