Get Unfiltered Test Concepts — get_test_concepts • chariot
…
#> Connecting using PostgreSQL driver
#> [2021-01-10 14:50:12]	Overriding cache... Querying Athena...
#> [2021-01-10 14:50:12] 	
#> ✓ Open connection
#> [2021-01-10 14:50:12] 	
#> ✓ JDBC connection
#> [2021-01-10 14:50:12]	SQL: SELECT * FROM omop_vocabulary.concept ORDER BY RANDOM() LIMIT 100
#> [2021-01-10 14:50:12]	Querying...
#> [2021-01-10 14:50:20]	Querying...complete
#> [2021-01-10 14:50:20] 	
#> ✓ Returned data has more than 0 rows
#> [2021-01-10 14:50:20]	Caching resultset...
#> [2021-01-10 14:50:20]	Postgres connection to 'athena' closed
#> # A tibble: 100 x 10
#>    concept_id concept_name domain_id vocabulary_id concept_class_id
#>         <dbl> <chr>        <chr>     <chr>         <chr>           
#>  1    4167869 Fluoroscopi… Procedure SNOMED        Procedure       
#>  2   44198939 2.5 ML Sodi… Drug      RxNorm Exten… Quant Clinical …
#>  3   42778157 Therapeutic… Procedure OPS           Procedure       
#>  4   35193928 Thrombin 50… Drug      JMDC          Drug Product    
#>  5   40310544 Urine cultu… Condition SNOMED        Clinical Finding
#>  6   45936994 Heptachlor … Condition CIEL          Diagnosis       
#>  7   43528465 Sibling Men… Observat… PPI           Answer          
#>  8   42490034 Impetigo [a… Condition KCD7          KCD7 code       
#>  9   43315795 Normal Immu… Drug      AMT           Med Product Unit
#> 10    2781801 Change Spli… Procedure ICD10PCS      ICD10PCS        
#> # … with 90 more rows, and 5 more variables: standard_concept <chr>,
#> #   concept_code <chr>, valid_start_date <date>, valid_end_date <date>,
#> #   invalid_reason <chr>
…
#> Connecting using PostgreSQL driver
#> [2021-01-10 14:50:20]	Overriding cache... Querying Athena...
#> [2021-01-10 14:50:20] 	
#> ✓ Open connection
#> [2021-01-10 14:50:20] 	
#> ✓ JDBC connection
#> [2021-01-10 14:50:20]	SQL: SELECT * FROM omop_vocabulary.concept ORDER BY RANDOM() LIMIT 25
#> [2021-01-10 14:50:20]	Querying...
#> [2021-01-10 14:50:27]	Querying...complete
#> [2021-01-10 14:50:27] 	
#> ✓ Returned data has more than 0 rows
#> [2021-01-10 14:50:27]	Caching resultset...
#> [2021-01-10 14:50:27]	Postgres connection to 'athena' closed
#> # A tibble: 25 x 10
#>    concept_id concept_name domain_id vocabulary_id concept_class_id
#>         <dbl> <chr>        <chr>     <chr>         <chr>           
#>  1   45111634 loratadine … Drug      NDC           11-digit NDC    
#>  2   43563914 Ambroxol He… Drug      RxNorm Exten… Brand Name      
#>  3   40235654 Carboxymeth… Drug      RxNorm        Branded Drug    
#>  4   44835006 Hypermobili… Condition ICD9CM        5-dig billing c…
#>  5   41262678 Allium sati… Drug      RxNorm Exten… Marketed Product
#>  6   36229324 Plasma-Lyte… Drug      RxNorm        Branded Dose Gr…
#>  7   45264405 Amoxapine 2… Drug      NDC           11-digit NDC    
#>  8   42171105 Incision An… Procedure EDI           Procedure       
#>  9   44901975 Isosorbide … Drug      NDC           11-digit NDC    
#> 10   35603295 cariprazine… Drug      RxNorm        Branded Drug Co…
#> # … with 15 more rows, and 5 more variables: standard_concept <chr>,
#> #   concept_code <chr>, valid_start_date <date>, valid_end_date <date>,
#> #   invalid_reason <chr>
…
#> Connecting using PostgreSQL driver
#> [2021-01-10 14:50:31]	Overriding cache... Querying Athena...
#> [2021-01-10 14:50:31] 	
#> ✓ Open connection
#> [2021-01-10 14:50:31] 	
#> ✓ JDBC connection
#> [2021-01-10 14:50:31]	SQL: SELECT * FROM omop_vocabulary.concept_relationship ORDER BY RANDOM() LIMIT 100
#> [2021-01-10 14:50:31]	Querying...
#> [2021-01-10 14:51:04]	Querying...complete
#> [2021-01-10 14:51:04] 	
#> ✓ Returned data has more than 0 rows
#> [2021-01-10 14:51:04]	Caching resultset...
#> [2021-01-10 14:51:04]	Postgres connection to 'athena' closed
#> # A tibble: 100 x 6
#>    concept_id_1 concept_id_2 relationship_id valid_start_date valid_end_date
#>           <dbl>        <dbl> <chr>           <date>           <date>        
#>  1     44210879     40807985 Has brand name  2017-10-06       2099-12-31    
#>  2     35626973     45967677 VMP prescr sta… 2018-07-31       2099-12-31    
#>  3     42792156     42787476 Subsumes        1970-01-01       2099-12-31    
#>  4     21059350     19074842 Marketed form … 2017-06-24       2099-12-31    
#>  5     44991744     42708492 Maps to         1970-01-01       2099-12-31    
#>  6     43186945     19082104 RxNorm has dos… 2016-09-10       2099-12-31    
#>  7     46144211     35626992 Has disc indic… 2018-07-31       2099-12-31    
#>  8     37209199     46127564 Subsumes        2019-07-31       2099-12-31    
#>  9     46075308     37207390 Has CD category 2019-07-31       2099-12-31    
#> 10     21126862     21154184 Quantified for… 2015-08-17       2099-12-31    
#> # … with 90 more rows, and 1 more variable: invalid_reason <chr>
…
