Get Test Drug Classes — get_test_drug_classes • chariot
…
# Get Unfiltered Test Concepts (Invalid Concepts are included)
get_test_concepts()

#> [2021-05-26 15:05:49]	Connected to 'athena'
#> [2021-05-26 15:05:49]	Overriding cache... Querying Athena...
#> [2021-05-26 15:05:49]	✓ Open connection
#> [2021-05-26 15:05:49]	✓ JDBC connection
#> [2021-05-26 15:05:49]	SQL: SELECT * FROM omop_vocabulary.concept ORDER BY RANDOM() LIMIT 100
#> [2021-05-26 15:05:49]	Querying...
#> [2021-05-26 15:05:57]	Querying...complete
#> [2021-05-26 15:05:57]	✓ Returned data has more than 0 rows
#> [2021-05-26 15:05:57]	Caching resultset...
#> [2021-05-26 15:05:57]	Postgres connection to 'athena' closed
#> # A tibble: 100 x 10
#>    concept_id concept_name              domain_id vocabulary_id concept_class_id
#>         <int> <chr>                     <chr>     <chr>         <chr>           
#>  1   35193673 Theophylline [Unicon]     Drug      JMDC          Drug Product    
#>  2    3397148 Common variable immunode… Condition Nebraska Lex… Clinical Finding
#>  3   41457776 2.02 ML hypromellose 10 … Drug      RxNorm Exten… Marketed Product
#>  4   36764054 SDHD Protein Variant: Su… Measurem… OMOP Extensi… Protein Variant 
#>  5   45844270 nicotine polacrilex 4mg/… Drug      NDC           9-digit NDC     
#>  6    2314052 Pediatric home apnea mon… Procedure CPT4          CPT4            
#>  7   44510558 Unspecified excision of … Procedure OPCS4         Procedure       
#>  8   21365299 Neria subcutaneous drug … Device    dm+d          AMPP            
#>  9   43220166 180 ML Ambroxol 3 MG/ML … Drug      RxNorm Exten… Marketed Product
#> 10    3299256 Supervisor and general f… Observat… Nebraska Lex… Social Context  
#> # … with 90 more rows, and 5 more variables: standard_concept <chr>,
#> #   concept_code <chr>, valid_start_date <date>, valid_end_date <date>,
#> #   invalid_reason <chr>

# The size of the resultset can be altered
get_test_concepts(limit = 25)

#> [2021-05-26 15:05:58]	Connected to 'athena'
#> [2021-05-26 15:05:58]	Overriding cache... Querying Athena...
#> [2021-05-26 15:05:58]	✓ Open connection
#> [2021-05-26 15:05:58]	✓ JDBC connection
#> [2021-05-26 15:05:58]	SQL: SELECT * FROM omop_vocabulary.concept ORDER BY RANDOM() LIMIT 25
#> [2021-05-26 15:05:58]	Querying...
#> [2021-05-26 15:06:05]	Querying...complete
#> [2021-05-26 15:06:05]	✓ Returned data has more than 0 rows
#> [2021-05-26 15:06:05]	Caching resultset...
#> [2021-05-26 15:06:05]	Postgres connection to 'athena' closed
#> # A tibble: 25 x 10
#>    concept_id concept_name             domain_id  vocabulary_id concept_class_id
#>         <int> <chr>                    <chr>      <chr>         <chr>           
#>  1   44154117 Q-Fluoxetine             Drug       DPD           Brand Name      
#>  2   37018675 History of syphilis      Observati… SNOMED        Context-depende…
#>  3   46174044 Fulcionel female high w… Device     SNOMED        Physical Object 
#>  4   21394304 Redifit ileostomy bag m… Device     dm+d          AMPP            
#>  5   45720673 FOLLITROPIN BETA,RECOMB… Drug       GCN_SEQNO     GCN_SEQNO       
#>  6   41504188 80000 MG Thymus vulgari… Drug       RxNorm Exten… Quant Branded D…
#>  7   35975936 S65W (c.194C>G)          Measureme… CIViC         Variant         
#>  8   36051286 Duomed Soft class II be… Device     dm+d          AMPP            
#>  9    3575457 Form 3 NOS               Observati… SNOMED        Undefined       
#> 10   42390886 Left And Right Pulmonar… Procedure  EDI           Procedure       
#> # … with 15 more rows, and 5 more variables: standard_concept <chr>,
#> #   concept_code <chr>, valid_start_date <date>, valid_end_date <date>,
#> #   invalid_reason <chr>
…
# Test data can also be taken from tables other than Concept
get_test_data(table = "concept_relationship")

#> [2021-05-26 15:06:09]	Connected to 'athena'
#> [2021-05-26 15:06:09]	Overriding cache... Querying Athena...
#> [2021-05-26 15:06:09]	✓ Open connection
#> [2021-05-26 15:06:09]	✓ JDBC connection
#> [2021-05-26 15:06:09]	SQL: SELECT * FROM omop_vocabulary.concept_relationship ORDER BY RANDOM() LIMIT 100
#> [2021-05-26 15:06:09]	Querying...
#> [2021-05-26 15:06:43]	Querying...complete
#> [2021-05-26 15:06:43]	✓ Returned data has more than 0 rows
#> [2021-05-26 15:06:43]	Caching resultset...
#> [2021-05-26 15:06:43]	Postgres connection to 'athena' closed
#> # A tibble: 100 x 6
#>    concept_id_1 concept_id_2 relationship_id     valid_start_date valid_end_date
#>           <int>        <int> <chr>               <date>           <date>        
#>  1      2775692      4179713 Is a                1970-01-01       2099-12-31    
#>  2      1574074        16147 Subsumes            2016-03-25       2099-12-31    
#>  3      4277343      4147543 Is a                2011-07-31       2099-12-31    
#>  4      3426656      3425646 Is a                2019-08-16       2099-12-31    
#>  5      3039678     45878148 Has Answer          1970-01-01       2099-12-31    
#>  6     41104859     40820510 Has supplier        2017-07-18       2099-12-31    
#>  7     41054914     19082573 RxNorm has dose fo… 2017-07-18       2099-12-31    
#>  8     41487666     41486542 Marketed form of    2017-07-18       2099-12-31    
#>  9      1007898     40768600 Component of        2019-12-13       2099-12-31    
#> 10     46180963     35626975 VMP has prescr stat 2018-07-31       2099-12-31    
#> # … with 90 more rows, and 1 more variable: invalid_reason <chr>
…
