Search Exact Matches to a Phrase — search_exact_phrase • chariot
…
#>                         WHERE LOWER(cs.concept_synonym_name) LIKE LOWER('%Myocardial infarction%')
#>                         GROUP BY c.concept_id,
#>                                 c.concept_name,
#>                                 c.domain_id,
#>                                 c.vocabulary_id,
#>                                 c.concept_class_id,
#>                                 c.standard_concept,
#>                                 c.concept_code,
#>                                 c.valid_start_date,
#>                                 c.valid_end_date,
#>                                 c.invalid_reason;
#>                         
#> [2021-01-10 14:58:23]	Cached resultset found...
#> [2021-01-10 14:58:24]	Postgres connection to 'athena' closed
#> # A tibble: 877 x 11
#>    concept_id concept_name domain_id vocabulary_id concept_class_id
#>         <dbl> <chr>        <chr>     <chr>         <chr>           
#>  1     312327 Acute myoca… Condition SNOMED        Clinical Finding
#>  2     314666 Old myocard… Condition SNOMED        Clinical Finding
#>  3     319038 Postmyocard… Condition SNOMED        Clinical Finding
#>  4     319039 Acute poste… Condition SNOMED        Clinical Finding
#>  5     434376 Acute myoca… Condition SNOMED        Clinical Finding
#>  6     435561 Certain cur… Condition SNOMED        Clinical Finding
#>  7     436706 Acute myoca… Condition SNOMED        Clinical Finding
#>  8     438170 Acute myoca… Condition SNOMED        Clinical Finding
#>  9     438172 Atrial sept… Condition SNOMED        Clinical Finding
#> 10     438438 Acute myoca… Condition SNOMED        Clinical Finding
#> # … with 867 more rows, and 6 more variables: standard_concept <chr>,
#> #   concept_code <chr>, valid_start_date <date>, valid_end_date <date>,
#> #   invalid_reason <chr>, concept_synonyms <chr>
…
#>                         WHERE cs.concept_synonym_name LIKE '%Myocardial infarction%'
#>                         GROUP BY c.concept_id,
#>                                 c.concept_name,
#>                                 c.domain_id,
#>                                 c.vocabulary_id,
#>                                 c.concept_class_id,
#>                                 c.standard_concept,
#>                                 c.concept_code,
#>                                 c.valid_start_date,
#>                                 c.valid_end_date,
#>                                 c.invalid_reason;
#>                         
#> [2021-01-10 14:58:24]	Cached resultset found...
#> [2021-01-10 14:58:24]	Postgres connection to 'athena' closed
#> # A tibble: 61 x 11
#>    concept_id concept_name domain_id vocabulary_id concept_class_id
#>         <dbl> <chr>        <chr>     <chr>         <chr>           
#>  1    1014313 Myocardial … Observat… LOINC         LOINC Component 
#>  2    1034841 Myocardial … Observat… LOINC         LOINC Component 
#>  3    1034906 Myocardial … Observat… LOINC         LOINC Component 
#>  4    1326590 Myocardial … Condition ICD10CM       5-char billing …
#>  5    1413769 Myocardial … Condition ICD10CN       ICD10 code      
#>  6    1413811 Myocardial … Condition ICD10CN       ICD10 code      
#>  7    1413812 Myocardial … Condition ICD10CN       ICD10 code      
#>  8    3090976 H/O: Myocar… Observat… Nebraska Lex… Context-depende…
#>  9    3109458 H/O: Myocar… Observat… Nebraska Lex… Context-depende…
#> 10    3124335 Myocardial … Condition Nebraska Lex… Clinical Finding
#> # … with 51 more rows, and 6 more variables: standard_concept <chr>,
#> #   concept_code <chr>, valid_start_date <date>, valid_end_date <date>,
#> #   invalid_reason <chr>, concept_synonyms <chr>
…
#>                         WHERE LOWER(cs.concept_synonym_name) LIKE LOWER('Myocardial infarction%')
#>                         GROUP BY c.concept_id,
#>                                 c.concept_name,
#>                                 c.domain_id,
#>                                 c.vocabulary_id,
#>                                 c.concept_class_id,
#>                                 c.standard_concept,
#>                                 c.concept_code,
#>                                 c.valid_start_date,
#>                                 c.valid_end_date,
#>                                 c.invalid_reason;
#>                         
#> [2021-01-10 14:58:24]	Cached resultset found...
#> [2021-01-10 14:58:24]	Postgres connection to 'athena' closed
#> # A tibble: 49 x 11
#>    concept_id concept_name domain_id vocabulary_id concept_class_id
#>         <dbl> <chr>        <chr>     <chr>         <chr>           
#>  1    1014313 Myocardial … Observat… LOINC         LOINC Component 
#>  2    1034841 Myocardial … Observat… LOINC         LOINC Component 
#>  3    1034906 Myocardial … Observat… LOINC         LOINC Component 
#>  4    1326590 Myocardial … Condition ICD10CM       5-char billing …
#>  5    1413769 Myocardial … Condition ICD10CN       ICD10 code      
#>  6    1413811 Myocardial … Condition ICD10CN       ICD10 code      
#>  7    1413812 Myocardial … Condition ICD10CN       ICD10 code      
#>  8    3124335 Myocardial … Condition Nebraska Lex… Clinical Finding
#>  9    3137847 Myocardial … Condition Nebraska Lex… Clinical Finding
#> 10    3162882 Myocardial … Observat… Nebraska Lex… Qualifier Value 
#> # … with 39 more rows, and 6 more variables: standard_concept <chr>,
#> #   concept_code <chr>, valid_start_date <date>, valid_end_date <date>,
#> #   invalid_reason <chr>, concept_synonyms <chr>
…
#>                         WHERE LOWER(cs.concept_synonym_name) LIKE LOWER('%Myocardial infarction')
#>                         GROUP BY c.concept_id,
#>                                 c.concept_name,
#>                                 c.domain_id,
#>                                 c.vocabulary_id,
#>                                 c.concept_class_id,
#>                                 c.standard_concept,
#>                                 c.concept_code,
#>                                 c.valid_start_date,
#>                                 c.valid_end_date,
#>                                 c.invalid_reason;
#>                         
#> [2021-01-10 14:58:24]	Cached resultset found...
#> [2021-01-10 14:58:24]	Postgres connection to 'athena' closed
#> # A tibble: 328 x 11
#>    concept_id concept_name domain_id vocabulary_id concept_class_id
#>         <dbl> <chr>        <chr>     <chr>         <chr>           
#>  1     312327 Acute myoca… Condition SNOMED        Clinical Finding
#>  2     314666 Old myocard… Condition SNOMED        Clinical Finding
#>  3     319039 Acute poste… Condition SNOMED        Clinical Finding
#>  4     434376 Acute myoca… Condition SNOMED        Clinical Finding
#>  5     435561 Certain cur… Condition SNOMED        Clinical Finding
#>  6     436706 Acute myoca… Condition SNOMED        Clinical Finding
#>  7     438170 Acute myoca… Condition SNOMED        Clinical Finding
#>  8     438172 Atrial sept… Condition SNOMED        Clinical Finding
#>  9     438438 Acute myoca… Condition SNOMED        Clinical Finding
#> 10     438447 Acute myoca… Condition SNOMED        Clinical Finding
#> # … with 318 more rows, and 6 more variables: standard_concept <chr>,
#> #   concept_code <chr>, valid_start_date <date>, valid_end_date <date>,
#> #   invalid_reason <chr>, concept_synonyms <chr>
…
#> 								AND LOWER(cs.concept_synonym_name) LIKE LOWER('%infarction%')
#>                                                         GROUP BY
#>                                                                 c.concept_id,
#>                                                                 c.concept_name,
#>                                                                 c.domain_id,
#>                                                                 c.vocabulary_id,
#>                                                                 c.concept_class_id,
#>                                                                 c.standard_concept,
#>                                                                 c.concept_code,
#>                                                                 c.valid_start_date,
#>                                                                 c.valid_end_date,
#>                                                                 c.invalid_reason;
#> [2021-01-10 14:58:24]	Cached resultset found...
#> [2021-01-10 14:58:24]	Postgres connection to 'athena' closed
#> # A tibble: 880 x 11
#>    concept_id concept_name domain_id vocabulary_id concept_class_id
#>         <dbl> <chr>        <chr>     <chr>         <chr>           
#>  1     312327 Acute myoca… Condition SNOMED        Clinical Finding
#>  2     314666 Old myocard… Condition SNOMED        Clinical Finding
#>  3     319038 Postmyocard… Condition SNOMED        Clinical Finding
#>  4     319039 Acute poste… Condition SNOMED        Clinical Finding
#>  5     434376 Acute myoca… Condition SNOMED        Clinical Finding
#>  6     435561 Certain cur… Condition SNOMED        Clinical Finding
#>  7     436706 Acute myoca… Condition SNOMED        Clinical Finding
#>  8     438170 Acute myoca… Condition SNOMED        Clinical Finding
#>  9     438172 Atrial sept… Condition SNOMED        Clinical Finding
#> 10     438438 Acute myoca… Condition SNOMED        Clinical Finding
#> # … with 870 more rows, and 6 more variables: standard_concept <chr>,
#> #   concept_code <chr>, valid_start_date <date>, valid_end_date <date>,
#> #   invalid_reason <chr>, concept_synonyms <chr>
…
