Query a Source Vocabulary's Relationships — vocab_lookup_intrarelation • chariot
…
    See also

    render

    Examples

library(chariot)
library(tidyverse)

# Lookup relationships on the Vocabulary-Concept Class Id axis
vocab_lookup_relationships(vocabulary_id = "HemOnc")

#> [2021-05-26 16:07:59]	Connected to 'athena'
#> [2021-05-26 16:07:59]	Postgres connection to 'athena' closed
#> # A tibble: 96 x 5
#>    vocabulary_id_1 concept_class_id_1 relationship_id    vocabulary_id_2
#>    <chr>           <chr>              <chr>              <chr>          
#>  1 HemOnc          Brand Name         Brand name of      HemOnc         
#>  2 HemOnc          Brand Name         NA                 NA             
#>  3 HemOnc          Component          Antineoplastic of  HemOnc         
#>  4 HemOnc          Component          Biosimilar of      HemOnc         
#>  5 HemOnc          Component          Concept replaces   HemOnc         
#>  6 HemOnc          Component          Has FDA indication HemOnc         
#>  7 HemOnc          Component          Has accepted use   HemOnc         
#>  8 HemOnc          Component          Has biosimilar     HemOnc         
#>  9 HemOnc          Component          Has brand name     HemOnc         
#> 10 HemOnc          Component          Has route          HemOnc         
#> # … with 86 more rows, and 1 more variable: concept_class_id_2 <chr>

# Relationships between HemOnc concepts only can also be looked up
vocab_lookup_intrarelation(vocabulary_id = "HemOnc")

#> [2021-05-26 16:07:59]	Connected to 'athena'
#> [2021-05-26 16:07:59]	Postgres connection to 'athena' closed
#> # A tibble: 68 x 5
#>    vocabulary_id_1 concept_class_id_1 relationship_id     vocabulary_id_2
#>    <chr>           <chr>              <chr>               <chr>          
#>  1 HemOnc          Brand Name         Brand name of       HemOnc         
#>  2 HemOnc          Component          Antineoplastic of   HemOnc         
#>  3 HemOnc          Component          Biosimilar of       HemOnc         
#>  4 HemOnc          Component          Has FDA indication  HemOnc         
#>  5 HemOnc          Component          Has accepted use    HemOnc         
#>  6 HemOnc          Component          Has biosimilar      HemOnc         
#>  7 HemOnc          Component          Has brand name      HemOnc         
#>  8 HemOnc          Component          Has route           HemOnc         
#>  9 HemOnc          Component          Immunosuppressor of HemOnc         
#> 10 HemOnc          Component          Is a                HemOnc         
#> # … with 58 more rows, and 1 more variable: concept_class_id_2 <chr>
…
